********************	LEGEND
*o..*    * *   ....*	* - wall
***.** *** * **.**.*	@ - item
***......* * *..* .*	o - starting position
*   ****.*   *.***.*	! - ending position
* * *  *.*****.  *.*	. - winning path
* * ** *.......***.*	Total number of moves 85
* *    *.*******  @*
* ******...*   *****
*   * *  *.*** * * *
*****   *..* * * * *
*   *****.** * * * *
* *  ..... *   * * *
* * *.**** ** ** * *
*****.*     *      *
*    .******* ** ***
* * *.*.....* *  * *
*****.*.***.* **** *
*    ...*!..*      *
********************
